/Users/ahmedkane/Desktop/BIZAO/api/flitght-app/src/main/java/sn/ahmedkane/flitght/web/dto/SearchDto.java
/Users/ahmedkane/Desktop/BIZAO/api/flitght-app/src/main/java/sn/ahmedkane/flitght/web/dto/MetaDto.java
/Users/ahmedkane/Desktop/BIZAO/api/flitght-app/src/main/java/sn/ahmedkane/flitght/service/IMetaService.java
/Users/ahmedkane/Desktop/BIZAO/api/flitght-app/src/main/java/sn/ahmedkane/flitght/service/imp/MetaServiceImpl.java
/Users/ahmedkane/Desktop/BIZAO/api/flitght-app/src/main/java/sn/ahmedkane/flitght/web/dto/response/ResponseAirline.java
/Users/ahmedkane/Desktop/BIZAO/api/flitght-app/src/main/java/sn/ahmedkane/flitght/web/dto/AirportTravelPayoutsDto.java
/Users/ahmedkane/Desktop/BIZAO/api/flitght-app/src/main/java/sn/ahmedkane/flitght/SessionIdentifierGeneratorConfig.java
/Users/ahmedkane/Desktop/BIZAO/api/flitght-app/src/main/java/sn/ahmedkane/flitght/web/client/FlitghtRestController.java
/Users/ahmedkane/Desktop/BIZAO/api/flitght-app/src/main/java/sn/ahmedkane/flitght/web/dto/response/ResponseAirportRapidapi.java
/Users/ahmedkane/Desktop/BIZAO/api/flitght-app/src/main/java/sn/ahmedkane/flitght/web/dto/response/ResponseAirlineTravelPayouts.java
/Users/ahmedkane/Desktop/BIZAO/api/flitght-app/src/main/java/sn/ahmedkane/flitght/web/controller/AirportController.java
/Users/ahmedkane/Desktop/BIZAO/api/flitght-app/src/main/java/sn/ahmedkane/flitght/FlitghtDataAppApplication.java
/Users/ahmedkane/Desktop/BIZAO/api/flitght-app/src/main/java/sn/ahmedkane/flitght/service/imp/AirportServiceImp.java
/Users/ahmedkane/Desktop/BIZAO/api/flitght-app/src/main/java/sn/ahmedkane/flitght/web/controller/FlitghtController.java
/Users/ahmedkane/Desktop/BIZAO/api/flitght-app/src/main/java/sn/ahmedkane/flitght/web/dto/AirportsDistanceToFromDto.java
/Users/ahmedkane/Desktop/BIZAO/api/flitght-app/target/generated-sources/java/sn/ahmedkane/flitght/persistance/entities/QAirline.java
/Users/ahmedkane/Desktop/BIZAO/api/flitght-app/src/main/java/sn/ahmedkane/flitght/web/dto/VolViewDto.java
/Users/ahmedkane/Desktop/BIZAO/api/flitght-app/src/main/java/sn/ahmedkane/flitght/web/dto/SearchAirlineDto.java
/Users/ahmedkane/Desktop/BIZAO/api/flitght-app/src/main/java/sn/ahmedkane/flitght/persistance/entities/Airport.java
/Users/ahmedkane/Desktop/BIZAO/api/flitght-app/src/main/java/sn/ahmedkane/flitght/ServletInitializer.java
/Users/ahmedkane/Desktop/BIZAO/api/flitght-app/src/main/java/sn/ahmedkane/flitght/persistance/repository/AirlineRepository.java
/Users/ahmedkane/Desktop/BIZAO/api/flitght-app/src/main/java/sn/ahmedkane/flitght/web/dto/AirportRapidapiDto.java
/Users/ahmedkane/Desktop/BIZAO/api/flitght-app/src/main/java/sn/ahmedkane/flitght/service/IAirlineService.java
/Users/ahmedkane/Desktop/BIZAO/api/flitght-app/src/main/java/sn/ahmedkane/flitght/web/dto/AirlineTravelPayoutsDto.java
/Users/ahmedkane/Desktop/BIZAO/api/flitght-app/src/main/java/sn/ahmedkane/flitght/service/IVoleService.java
/Users/ahmedkane/Desktop/BIZAO/api/flitght-app/src/main/java/sn/ahmedkane/flitght/persistance/entities/Vol.java
/Users/ahmedkane/Desktop/BIZAO/api/flitght-app/src/main/java/sn/ahmedkane/flitght/service/IAirportService.java
/Users/ahmedkane/Desktop/BIZAO/api/flitght-app/src/main/java/sn/ahmedkane/flitght/persistance/repository/MetaRepository.java
/Users/ahmedkane/Desktop/BIZAO/api/flitght-app/src/main/java/sn/ahmedkane/flitght/utils/StatusResponse.java
/Users/ahmedkane/Desktop/BIZAO/api/flitght-app/src/main/java/sn/ahmedkane/flitght/web/dto/response/ResponseTravelPayoutsdapi.java
/Users/ahmedkane/Desktop/BIZAO/api/flitght-app/src/main/java/sn/ahmedkane/flitght/persistance/entities/Meta.java
/Users/ahmedkane/Desktop/BIZAO/api/flitght-app/src/main/java/sn/ahmedkane/flitght/persistance/entities/Airline.java
/Users/ahmedkane/Desktop/BIZAO/api/flitght-app/src/main/java/sn/ahmedkane/flitght/service/imp/VoleServiceImp.java
/Users/ahmedkane/Desktop/BIZAO/api/flitght-app/src/main/java/sn/ahmedkane/flitght/web/dto/AvionDto.java
/Users/ahmedkane/Desktop/BIZAO/api/flitght-app/target/generated-sources/java/sn/ahmedkane/flitght/persistance/entities/QMeta.java
/Users/ahmedkane/Desktop/BIZAO/api/flitght-app/target/generated-sources/java/sn/ahmedkane/flitght/persistance/entities/QAirport.java
/Users/ahmedkane/Desktop/BIZAO/api/flitght-app/src/main/java/sn/ahmedkane/flitght/web/controller/AirlineController.java
/Users/ahmedkane/Desktop/BIZAO/api/flitght-app/src/main/java/sn/ahmedkane/flitght/persistance/repository/AirportRepository.java
/Users/ahmedkane/Desktop/BIZAO/api/flitght-app/src/main/java/sn/ahmedkane/flitght/service/imp/AirlineServiceImp.java
/Users/ahmedkane/Desktop/BIZAO/api/flitght-app/src/main/java/sn/ahmedkane/flitght/web/dto/AirlineRapidapiDto.java
/Users/ahmedkane/Desktop/BIZAO/api/flitght-app/src/main/java/sn/ahmedkane/flitght/utils/IdentifierGenerator.java
